{
  "@context": {
    "cc": "http://creativecommons.org/ns#",
    "ctag": "http://commontag.org/ns#",
    "dc": "http://purl.org/dc/elements/1.1/",
    "dc1": "http://purl.org/dc/terms/",
    "dc11": "http://purl.org/dc/elements/1.1/",
    "dcat": "http://www.w3.org/ns/dcat#",
    "dcterms": "http://purl.org/dc/terms/",
    "foaf": "http://xmlns.com/foaf/0.1/",
    "gr": "http://purl.org/goodrelations/v1#",
    "grddl": "http://www.w3.org/2003/g/data-view#",
    "hcalendar": "http://microformats.org/profile/hcalendar#",
    "hcard": "http://microformats.org/profile/hcard#",
    "ical": "http://www.w3.org/2002/12/cal/icaltzd#",
    "ma": "http://www.w3.org/ns/ma-ont#",
    "md": "http://www.w3.org/ns/md#",
    "og": "http://ogp.me/ns#",
    "org": "http://www.w3.org/ns/org#",
    "owl": "http://www.w3.org/2002/07/owl#",
    "prov": "http://www.w3.org/ns/prov#",
    "qb": "http://purl.org/linked-data/cube#",
    "rdf": "http://www.w3.org/1999/02/22-rdf-syntax-ns#",
    "rdfa": "http://www.w3.org/ns/rdfa#",
    "rdfs": "http://www.w3.org/2000/01/rdf-schema#",
    "rev": "http://purl.org/stuff/rev#",
    "rif": "http://www.w3.org/2007/rif#",
    "rr": "http://www.w3.org/ns/r2rml#",
    "schema": "http://schema.org/",
    "sd": "http://www.w3.org/ns/sparql-service-description#",
    "sioc": "http://rdfs.org/sioc/ns#",
    "skos": "http://www.w3.org/2004/02/skos/core#",
    "skosxl": "http://www.w3.org/2008/05/skos-xl#",
    "v": "http://rdf.data-vocabulary.org/#",
    "vcard": "http://www.w3.org/2006/vcard/ns#",
    "void": "http://rdfs.org/ns/void#",
    "wdr": "http://www.w3.org/2007/05/powder#",
    "wdrs": "http://www.w3.org/2007/05/powder-s#",
    "wdsr": "http://www.w3.org/2007/05/powder-s#",
    "xhv": "http://www.w3.org/1999/xhtml/vocab#",
    "xsd": "http://www.w3.org/2001/XMLSchema#"
  },
  "@graph": [
    {
      "@id": "http://mtinews.azurewebsites.net/Home/Politics",
      "rdfa:usesVocabulary": {
        "@id": "schema:"
      }
    },
    {
      "@id": "_:N410d1c484fe049fbbb662a3556f8727e",
      "@type": "schema:NewsArticle",
      "schema:addressCountry": "Chile",
      "schema:addressLocality": "Santiago",
      "schema:articleBody": "SANTIAGO.- A las 16 horas de hoy, cerca de 70 miembros de la UDI llegarán a las Termas de Cauquenes para participar del Consejo Directivo Ampliado. Entre ellos estará Andrés Chadwick, ex jefe de campaña del Presidente electo, Sebastián Piñera. El programa del encuentro contempla más de cuatro horas de debate. En la mesa aseguran que es necesario dar espacios de discusión, luego de que surgieran críticas respecto al rol de la directiva del partido, además de cuestionamientos por los resultados de las elecciones parlamentarias que dejaron a la colectividad en desventaja frente a Renovación Nacional, que conformó la bancada más grande de la Cámara de Diputados. A las cinco de la tarde, se espera que la presidenta del partido, la senadora Jacqueline van Rysselberghe inicie su discurso, titulado 'Desafíos de la UDI'. 'El Mercurio' tuvo acceso a algunos extractos del mensaje que pronunciará la presidenta del partido: 'Este consejo lo hemos convocado para escuchara todos los miembros del Consejo, para hablar sobre las elecciones y sobre el futuro de la UDI', comienza Van Rysselberghe.Luego, la presidenta del partido contextualiza el momento que debió enfrentar cuando llegó a encabezar la mesa. 'La directiva que presido partió marcada por desafíos urgentes: la reinscripción del partido y darle un nuevo y mejor gobierno a los chilenos. No fue fácil, pero se logró. Por lo mismo, y aunque sé que hay buenas razones para querer tomar un descanso, les tengo que pedir ahora ir sobre lo importante, la UDI del futuro', señala el discurso.La directiva propondrá tres lineamientos.En primer lugar, que se 'oriente la acción política a la clase media'.La idea sería que se trabaje con los estamentos como concejales y alcaldes para impactar en ese grupo.En segundo lugar, se postulará que hay que 'conquistar' a los sectores universitarios. 'El mundo universitario es clave porque es ahí donde salen las ideas, donde muchas veces se inician los liderazgos políticos', señaló el secretario general de la UDI, Pablo Terrazas.",
      "schema:articleSection": "Politics",
      "schema:author": "John Doe",
      "schema:datePublished": "2018-03-08T16:36:59",
      "schema:image": {
        "@id": "https://mtinews.blob.core.windows.net/imagenes/udi-portada.jpg"
      }
    }
  ]
}